{
  "name": "rently-gateway-v7",
  "json": {
    "name": "rently-gateway-v7",
    "message": "{console.log(\"Starting Iteration \"+state.iteration);new Date;let e={},a=state.myFunctions,s=!1,n=(glob.get(\"gateway_shared\"),glob.get(\"gateway_\"+client())),o=glob.get(\"gateway_\"+client()+\"_stats\"),u=glob.get(\"gateway_\"+client()+\"_iterationConfig\"),l=glob.get(\"gateway_\"+client()+\"_status\");state.gateway_status=l.value,state.status=state.gateway_status,o.GWstatus=state.gateway_status,console.log(\"Gateway Status : \"+state.gateway_status),console.log(n.thingName);state.thingName=n.thingName;let i=glob.get(\"gateway_\"+client()+\"_triggerManual\");if(state.payload_err&&(assert(!1,state.payload_err),o.errors.push({iteration:state.iteration,msg:\"payload_err : \"+state.payload_err}),state.payload_err=!1),\"booting\"===state.gateway_status)console.log(\"Booting...\"),--state.BootIterationsLeft<=0&&(console.log(\"Done Booting\"),state.gateway_status=\"post_boot\");else if(\"offline\"===state.gateway_status){let t={};if(console.log(\"Hub is Offline. Storing payloads to payload_buffer\"),u.forEach((function(e){(Date.now()>=state._$nextExecution[e.fun]||i.value===e.fun)&&(s?(console.log(\"Pushing \"+e.fun+\" to queue\"),state._$queue.push(e)):(console.log(\"TRIGGER: \",e.fun),t=a[e.fun](),++o.functionCounter[e.fun],s=!0),i.value===e.fun&&(console.log(\"Manually triggered \"+e.fun),i.value=!1))})),!s&&state._$queue[0]){let e=state._$queue.shift();console.log(\"Free Iteration, running \"+e.fun+\" from pending queue\"),t=a[e.fun](),++o.functionCounter[e.fun]}else s||state._$queue[0]||(console.log(\"Nothing to execute, Skipping iteration\"),skip());state.payload_buffer.push(t)}else if(\"post_boot\"===state.gateway_status){let t={fun:\"sendFWver\"};state._$queue.push(t),n.ble.mode=\"central\",state.gateway_status=\"online\"}else if(\"clearing_unsent\"===state.gateway_status)state.payload_buffer[0]?e=state.payload_buffer.shift():(console.log(\"No unsent messages to clear\"),state.gateway_status=\"online\");else if(\"online\"===state.gateway_status)if(u.forEach((function(t){(Date.now()>=state._$nextExecution[t.fun]||i.value===t.fun)&&(state._$nextExecution[t.fun]=Date.now()+t.interval,s?(console.log(\"Pushing \"+t.fun+\" to queue\"),state._$queue.push(t)):(console.log(\"TRIGGER: \",t.fun),e=a[t.fun](),++o.functionCounter[t.fun],s=!0),i.value===t.fun&&(console.log(\"Manually triggered \"+t.fun),i={value:!1}))})),!s&&state._$queue[0]){let t=state._$queue.shift();console.log(\"Free Iteration, running \"+t.fun+\" from pending queue\"),e=a[t.fun](),++o.functionCounter[t.fun]}else s||state._$queue[0]||(console.log(\"Nothing to execute, Skipping iteration\"),skip());else\"preview\"===state.gateway_status?e=a.heartBeat():(o.errors.push({iteration:state.iteration,msg:\"Unknown Status : \"+state.gateway_status}),assert(!1,\"Unknown Status : \"+state.gateway_status));o.lastPayload=JSON.stringify(e),glob.set(\"gateway_\"+client()+\"_stats\",o),l={value:state.gateway_status},glob.set(\"gateway_\"+client()+\"_status\",l);let g={value:i.value};return glob.set(\"gateway_\"+client()+\"_triggerManual\",g),++state.iteration,state.QUEUE=JSON.stringify(state._$queue),state.PAYLOAD=JSON.stringify(e),state.UNSENT=JSON.stringify(state.payload_buffer),JSON.stringify(e)}",
    "messageString": "{\r\n    console.log(\"Starting Iteration \"+ state.iteration );\r\n    \r\n\r\n    let timestamp = new Date();\r\n    let payload = {}\r\n    let hubFunctions = state.myFunctions;\r\n    let executed = false;\r\n\r\n    let shared = glob.get('gateway_shared');\r\n    let gateway = glob.get(\"gateway_\" + client());\r\n    let stats = glob.get(\"gateway_\" + client() + \"_stats\");\r\n    let iterationConfig = glob.get(\"gateway_\" + client() + \"_iterationConfig\");\r\n    let s = glob.get(\"gateway_\" + client() + \"_status\");\r\n    state.gateway_status = s.value; \r\n    \r\n    \r\n    state.status = state.gateway_status;\r\n    stats.GWstatus = state.gateway_status;\r\n    \r\n    console.log(\"Gateway Status : \"+ state.gateway_status);\r\n    console.log(gateway.thingName);\r\n    \r\n    let device_type = [\"lock\"];//, \"thermostat\", \"motion_sensor\"];\r\n    let curr_conn_type = [\"wifi\", \"cellular\", \"ethernet\"];\r\n    let lock_models = [\"540-25419-20556\",\"297-32780-3840\",\"297-32770-4096\",\"297-32770-5632\",\"297-32772-1536\",\"297-32771-2816\",\"297-32769-2816\",\"297-32770-1536\",\"297-32779-3840\",\"297-64155-48896\",\"297-3-1033\",\"297-2-0\",\"297-1-1033\",\"144-1-1\",\"59-25409-20548\",\"297-4-2048\",\"297-2-2048\",\"297-4-521\",\"297-32827-1288\",\"144-3-568\",\"144-2065-5032\",\"541-259-3\",\"297-32826-1288\"];\r\n    \r\n    \r\n    state.thingName = gateway.thingName;\r\n    \r\n    let triggerManual = glob.get(\"gateway_\" + client() + \"_triggerManual\");\r\n\r\n    if (state.payload_err) {\r\n        assert(false, state.payload_err);\r\n        stats.errors.push({\r\n            iteration: state.iteration,\r\n            msg: \"payload_err : \" + state.payload_err\r\n        });\r\n        state.payload_err = false;\r\n    }\r\n\r\n\r\n\r\n// Gatway goes from:\r\n// 1) Booting -> Post Boot ->  Online\r\n// 2) Offline -> clearing_unsent -> Online (set these in Glob)\r\n\r\n\r\n    if (state.gateway_status === \"booting\") {\r\n        console.log(\"Booting...\");\r\n\r\n        if (--state.BootIterationsLeft <= 0) {\r\n            console.log(\"Done Booting\");\r\n            state.gateway_status = \"post_boot\"\r\n\r\n        }\r\n\r\n    } \r\n    else if (state.gateway_status === \"offline\") {\r\n        \r\n        let payload_buffer_item = {}\r\n        \r\n        console.log(\"Hub is Offline. Storing payloads to payload_buffer\");\r\n\r\n        // For each function in the iterationConfig Array\r\n        iterationConfig.forEach(function(obj) {\r\n\r\n            // Check if the current iteration count is a multiple of any mod value\r\n            if (Date.now() >= state._$nextExecution[obj.fun] || triggerManual.value === obj.fun) {\r\n\r\n                // if no event has been triggered in this iteration, then trigger it\r\n                if (!executed) {\r\n                    console.log(\"TRIGGER: \", obj.fun);\r\n                    payload_buffer_item = hubFunctions[obj.fun]()\r\n                    ++stats.functionCounter[obj.fun]\r\n                    executed = true;\r\n                }\r\n                // otherwise push it to the pending queue\r\n                else {\r\n                    console.log(\"Pushing \" + obj.fun + \" to queue\");\r\n                    state._$queue.push(obj);\r\n                }\r\n                if(triggerManual.value === obj.fun) {\r\n                    console.log(\"Manually triggered \" + obj.fun);\r\n                    triggerManual.value = false;\r\n                    \r\n                }\r\n            }\r\n\r\n        });\r\n\r\n        // If no events are triggered after going through the loop, this is a free iteration\r\n        // if there are any pending events to execute, take the first one and execute\r\n        if (!executed && !!state._$queue[0]) {\r\n            let myObj = state._$queue.shift();\r\n\r\n            console.log(\"Free Iteration, running \" + myObj.fun + \" from pending queue\");\r\n            payload_buffer_item = hubFunctions[myObj.fun]();\r\n            ++stats.functionCounter[myObj.fun]\r\n        }\r\n\r\n        // otherwise just return an empty payload {}\r\n        else if (!executed && !state._$queue[0]) {\r\n            console.log(\"Nothing to execute, Skipping iteration\");\r\n            skip();\r\n        }\r\n        \r\n        state.payload_buffer.push(payload_buffer_item);\r\n        \r\n        \r\n    } \r\n    else if (state.gateway_status === \"post_boot\") {\r\n        // send FWVer\r\n        // Set BLE mode to central\r\n        \r\n        let obj = {\r\n            fun: \"sendFWver\"\r\n        }\r\n        state._$queue.push(obj);\r\n        \r\n        gateway.ble.mode = \"central\";\r\n        \r\n        state.gateway_status = \"online\"\r\n    } \r\n    else if (state.gateway_status === \"clearing_unsent\") {\r\n        if(!!state.payload_buffer[0]){\r\n            payload = state.payload_buffer.shift();\r\n        }\r\n        else{\r\n            console.log(\"No unsent messages to clear\");\r\n            state.gateway_status = \"online\";\r\n        }\r\n    } \r\n    else if (state.gateway_status === \"online\") {\r\n\r\n        // For each function in the iterationConfig Array\r\n        iterationConfig.forEach(function(obj) {\r\n\r\n            // Check if the current iteration count is a multiple of any mod value\r\n            if (Date.now() >= state._$nextExecution[obj.fun] || triggerManual.value === obj.fun) {\r\n                state._$nextExecution[obj.fun] = Date.now() + obj.interval;\r\n                // if no event has been triggered in this iteration, then trigger it\r\n                if (!executed) {\r\n                    console.log(\"TRIGGER: \", obj.fun);\r\n                    payload = hubFunctions[obj.fun]()\r\n                    ++stats.functionCounter[obj.fun]\r\n                    executed = true;\r\n                }\r\n                // otherwise push it to the pending queue\r\n                else {\r\n                    console.log(\"Pushing \" + obj.fun + \" to queue\");\r\n                    state._$queue.push(obj);\r\n                }\r\n                if(triggerManual.value === obj.fun) {\r\n                    console.log(\"Manually triggered \" + obj.fun);\r\n                    triggerManual = {value: false};\r\n                    \r\n                }\r\n            }\r\n\r\n        });\r\n\r\n        // If no events are triggered after going through the loop, this is a free iteration\r\n        // if there are any pending events to execute, take the first one and execute\r\n        if (!executed && !!state._$queue[0]) {\r\n            let myObj = state._$queue.shift();\r\n\r\n            console.log(\"Free Iteration, running \" + myObj.fun + \" from pending queue\");\r\n            payload = hubFunctions[myObj.fun]();\r\n            ++stats.functionCounter[myObj.fun]\r\n        }\r\n\r\n        // otherwise just return an empty payload {}\r\n        else if (!executed && !state._$queue[0]) {\r\n            console.log(\"Nothing to execute, Skipping iteration\");\r\n            skip();\r\n        }\r\n\r\n        \r\n    } \r\n    else if (state.gateway_status === \"preview\"){\r\n        //for testing purpose\r\n        payload = hubFunctions.heartBeat()\r\n        // payload = hubFunctions.sendFWver()\r\n        // payload = hubFunctions.hubPower()\r\n        // payload = hubFunctions.addDevice()\r\n        // payload = hubFunctions.removeDevice()\r\n        // payload = hubFunctions.sendConnectionType()\r\n        // payload = hubFunctions.sendBoardType()\r\n        // payload = hubFunctions.sendICCID() // *\r\n        // payload = hubFunctions.factoryTest()\r\n        // payload = hubFunctions.sendBLEmode()\r\n        // payload = hubFunctions.sendBLEcmd()\r\n        // payload = hubFunctions.rebootHub()\r\n        // payload = hubFunctions.upgradeReport()\r\n        // payload = hubFunctions.wifiScan()\r\n        // payload = hubFunctions.BLEscan()\r\n        // payload = hubFunctions.BLEfirmware()\r\n    }\r\n    else {\r\n\r\n        stats.errors.push({\r\n            iteration: state.iteration,\r\n            msg: \"Unknown Status : \" + state.gateway_status\r\n        });\r\n        assert(false, \"Unknown Status : \" + state.gateway_status);\r\n\r\n    }\r\n\r\n    stats.lastPayload = JSON.stringify(payload);\r\n    glob.set(\"gateway_\" + client() + \"_stats\", stats);\r\n    \r\n    s = {\r\n        value: state.gateway_status\r\n    }\r\n    glob.set(\"gateway_\" + client() + \"_status\", s);\r\n    \r\n    let t = {\r\n        value : triggerManual.value\r\n    }\r\n    glob.set(\"gateway_\" + client() + \"_triggerManual\", t);\r\n    ++state.iteration;\r\n\r\n    state.QUEUE = JSON.stringify(state._$queue);\r\n    state.PAYLOAD = JSON.stringify(payload);\r\n    state.UNSENT = JSON.stringify(state.payload_buffer);\r\n    \r\n    return JSON.stringify(payload);\r\n}",
    "options": {
      "username": "",
      "password": "",
      "key": "{{_meta.__$key}}",
      "cert": "{{_meta.__$cert}}",
      "ca": "-----BEGIN CERTIFICATE-----\nMIIE0zCCA7ugAwIBAgIQGNrRniZ96LtKIVjNzGs7SjANBgkqhkiG9w0BAQUFADCB\nyjELMAkGA1UEBhMCVVMxFzAVBgNVBAoTDlZlcmlTaWduLCBJbmMuMR8wHQYDVQQL\nExZWZXJpU2lnbiBUcnVzdCBOZXR3b3JrMTowOAYDVQQLEzEoYykgMjAwNiBWZXJp\nU2lnbiwgSW5jLiAtIEZvciBhdXRob3JpemVkIHVzZSBvbmx5MUUwQwYDVQQDEzxW\nZXJpU2lnbiBDbGFzcyAzIFB1YmxpYyBQcmltYXJ5IENlcnRpZmljYXRpb24gQXV0\naG9yaXR5IC0gRzUwHhcNMDYxMTA4MDAwMDAwWhcNMzYwNzE2MjM1OTU5WjCByjEL\nMAkGA1UEBhMCVVMxFzAVBgNVBAoTDlZlcmlTaWduLCBJbmMuMR8wHQYDVQQLExZW\nZXJpU2lnbiBUcnVzdCBOZXR3b3JrMTowOAYDVQQLEzEoYykgMjAwNiBWZXJpU2ln\nbiwgSW5jLiAtIEZvciBhdXRob3JpemVkIHVzZSBvbmx5MUUwQwYDVQQDEzxWZXJp\nU2lnbiBDbGFzcyAzIFB1YmxpYyBQcmltYXJ5IENlcnRpZmljYXRpb24gQXV0aG9y\naXR5IC0gRzUwggEiMA0GCSqGSIb3DQEBAQUAA4IBDwAwggEKAoIBAQCvJAgIKXo1\nnmAMqudLO07cfLw8RRy7K+D+KQL5VwijZIUVJ/XxrcgxiV0i6CqqpkKzj/i5Vbex\nt0uz/o9+B1fs70PbZmIVYc9gDaTY3vjgw2IIPVQT60nKWVSFJuUrjxuf6/WhkcIz\nSdhDY2pSS9KP6HBRTdGJaXvHcPaz3BJ023tdS1bTlr8Vd6Gw9KIl8q8ckmcY5fQG\nBO+QueQA5N06tRn/Arr0PO7gi+s3i+z016zy9vA9r911kTMZHRxAy3QkGSGT2RT+\nrCpSx4/VBEnkjWNHiDxpg8v+R70rfk/Fla4OndTRQ8Bnc+MUCH7lP59zuDMKz10/\nNIeWiu5T6CUVAgMBAAGjgbIwga8wDwYDVR0TAQH/BAUwAwEB/zAOBgNVHQ8BAf8E\nBAMCAQYwbQYIKwYBBQUHAQwEYTBfoV2gWzBZMFcwVRYJaW1hZ2UvZ2lmMCEwHzAH\nBgUrDgMCGgQUj+XTGoasjY5rw8+AatRIGCx7GS4wJRYjaHR0cDovL2xvZ28udmVy\naXNpZ24uY29tL3ZzbG9nby5naWYwHQYDVR0OBBYEFH/TZafC3ey78DAJ80M5+gKv\nMzEzMA0GCSqGSIb3DQEBBQUAA4IBAQCTJEowX2LP2BqYLz3q3JktvXf2pXkiOOzE\np6B4Eq1iDkVwZMXnl2YtmAl+X6/WzChl8gGqCBpH3vn5fJJaCGkgDdk+bW48DW7Y\n5gaRQBi5+MHt39tBquCWIMnNZBU4gcmU7qKEKQsTb47bDN0lAtukixlE0kF6BWlK\nWE9gyn6CagsCqiUXObXbf+eEZSqVir2G3l6BFoMtEMze/aiCKm0oHw0LxOXnGiYZ\n4fQRbxC1lfznQgUy286dUV4otp6F01vvpX1FQHKOtw5rDgb7MzVIcbidJ4vEZV8N\nhnacRHr2lVz2XTIIM6RUthg/aFzyQkqFOFSDX9HoLPKsEdao7WNq\n-----END CERTIFICATE-----",
      "rejectUnauthorized": true,
      "clientId": "client_%d",
      "keepalive": 60,
      "connectTimeout": 10000
    },
    "custom": {
      "init": "{glob.set(\"gateway_\"+client()+\"_active\",!0),_meta.__$key=glob.get(\"gateway_\"+client()+\"_key\"),_meta.__$cert=glob.get(\"gateway_\"+client()+\"_cert\"),state.iteration=1,state._$queue=[],state.payload_buffer=[],state.pubTopic=\"shadow/update\",state.locks=0,state.payload_err=!1;state._$REBOOT_SLEEP=5;let t=glob.get(\"gateway_\"+client()),n=new Date;console.log(\"Gateway Status : \"+state.gateway_status),console.log(t.thingName),state.thingName=t.thingName;let a=[\"lock\"],o=[\"540-25419-20556\",\"297-32780-3840\",\"297-32770-4096\",\"297-32770-5632\",\"297-32772-1536\",\"297-32771-2816\",\"297-32769-2816\",\"297-32770-1536\",\"297-32779-3840\",\"297-64155-48896\",\"297-3-1033\",\"297-2-0\",\"297-1-1033\",\"144-1-1\",\"59-25409-20548\",\"297-4-2048\",\"297-2-2048\",\"297-4-521\",\"297-32827-1288\",\"144-3-568\",\"144-2065-5032\",\"541-259-3\",\"297-32826-1288\"],i=[\"1.2.3.4\",\"1.3.4.6\",\"2.4.6.8\",\"2.5.8.9\",\"4.5.7.8\"],s=[\"wifi\",\"cellular\",\"ethernet\"],r=[\"V2\",\"V3\",\"V4\"],c=[\"sim7500a\",\"sim5300a\"],u=[\"Asia/Kolkata\",\"Asia/Japan\",\"Asia/Bangladesh\",\"Asia/Korea\",\"Asia/China\"];if(!t.initialized){state.gateway_status=\"booting\",glob.set(\"gateway_\"+client()+\"_status\",{value:state.gateway_status}),glob.set(\"gateway_\"+client()+\"_triggerManual\",{value:!1});let e=[{fun:\"heartBeat\",interval:3e5},{fun:\"sendFWver\",interval:6e5},{fun:\"hubPower\",interval:9e5},{fun:\"addDevice\",interval:36e5},{fun:\"removeDevice\",interval:54e5},{fun:\"sendConnectionType\",interval:12e5},{fun:\"sendBoardType\",interval:3e5},{fun:\"sendICCID\",interval:3e5},{fun:\"factoryTest\",interval:15e5},{fun:\"sendBLEmode\",interval:6e5},{fun:\"sendBLEcmd\",interval:6e5},{fun:\"rebootHub\",interval:864e5},{fun:\"BLEscan\",interval:3e5}];glob.set(\"gateway_\"+client()+\"_iterationConfig\",e),t.power={status:\"plugged\",level:chance.integer({min:0,max:100})},t.devices=[],t.firmware={fwVer:chance.pickone(i)},t.connection={curr_conn_type:chance.pickone(s)},t.board={board_type:chance.pickone(r),model:chance.pickone(c)},t.sim={imei:chance.string({length:15,numeric:!0}),iccid:chance.string({length:19,numeric:!0})},t.factory={rently_batch_code_duration:30*chance.integer({min:1,max:4}),time_zone:chance.pickone(u),agingTest:chance.bool()},t.rebooting={status:!1},t.ble={mode:\"central\"},t.initialized=!0}let d=glob.get(\"gateway_\"+client()+\"_iterationConfig\"),p=glob.get(\"gateway_\"+client()+\"_status\");state.gateway_status=p.value,state.status=state.gateway_status;let l=glob.get(\"gateway_shared\");l||(l={LockMACs:[\"D5:0B:94:3B:D6:6B\",\"DA:DF:DB:9F:62:EC\",\"E2:99:7F:CB:FF:CB\",\"D0:0D:F4:29:DF:48\",\"DB:42:93:D9:0B:A6\",\"CC:9F:CB:F9:71:2A\",\"CC:FD:C5:D8:CF:8D\",\"E2:48:B0:60:CD:DA\",\"C5:16:4C:60:D5:21\",\"FD:42:C6:0A:8D:FB\"]}),state.BootIterationsLeft=state._$REBOOT_SLEEP;let g={functionCounter:{heartBeat:0,sendFWver:0,hubPower:0,addDevice:0,removeDevice:0,sendConnectionType:0,sendBoardType:0,sendICCID:0,factoryTest:0,sendBLEmode:0,sendBLEcmd:0,rebootHub:0,upgradeReport:0,wifiScan:0,BLEscan:0},errors:[]};glob.set(\"gateway_\"+client()+\"_stats\",g),glob.set(\"gateway_\"+client(),t),state._$nextExecution={},d.forEach((function(e){state._$nextExecution[e.fun]=0}));let m={heartBeat:function(){return response={state:{reported:{thing_name:t.thingName,status:{heartBeat:n.toISOString()}}}},g.functionCounter.heartBeat++,state.pubTopic=\"shadow/update\",response},sendFWver:function(){return response={state:{reported:{thing_name:t.thingName,status:t.firmware,updateTime:n.toISOString()}}},g.functionCounter.sendFWver++,state.pubTopic=\"shadow/update\",response},hubPower:function(){let e=[];return\"unplugged\"===t.power.status?(e.push(\"0x01\"),e.push(t.power.level)):(e.push(\"0xc1\"),e.push(100)),response={state:{reported:{thing_name:t.thingName,notification:{powerNotification:e},updateTime:n.toISOString()}}},g.functionCounter.hubPower++,state.pubTopic=\"shadow/update\",response},addDevice:function(){state.devices=t.devices;let e=chance.pickone(a),n=t.devices.length+2,i=\"\";return\"lock\"===e&&(i=chance.pickone(o),t.registerLock={nodeId:n}),t.devices.push({nodeId:n,deviceType:e,model:i}),response={state:{reported:{thing_name:t.thingName,notification:{add_device:{[n]:[e,i]}}}}},g.functionCounter.addDevice++,state.pubTopic=\"shadow/update\",response},removeDevice:function(){if(!t.devices)return console.log(\"ERR: No devices to delete\"),!1;let e=chance.pickone(t.devices);t.RemoveDevice={};let n=\"\"+e.nodeId;return response={state:{reported:{thing_name:t.thingName,notification:{remove_device:{[n]:\"delete\"}}}}},g.functionCounter.removeDevice++,state.pubTopic=\"shadow/update\",response},sendConnectionType:function(){return\"wifi\"===t.connection.curr_conn_type?(t.connection.wifi_ssid=\"WIFI-\"+chance.integer({min:1,max:50}),t.connection.wifi_ss=chance.integer({min:0,max:100})):\"cellular\"===t.connection.curr_conn_type&&(t.connection.csq=\"\"+chance.floating({min:1.99,max:32.99,fixed:2})),response={state:{reported:{thing_name:t.thingName,notification:t.connection,updateTime:n.toISOString()}}},g.functionCounter.sendConnectionType++,state.pubTopic=\"shadow/update\",response},sendBoardType:function(){return response={state:{reported:{thing_name:t.thingName,status:t.board}}},g.functionCounter.sendBoardType++,state.pubTopic=\"shadow/update\",response},sendICCID:function(){return response={state:{reported:{thing_name:t.thingName,status:t.sim}}},g.functionCounter.sendICCID++,state.pubTopic=\"shadow/update\",response},factoryTest:function(){return response={state:{reported:{thing_name:t.thingName,settings:t.factory}}},g.functionCounter.factoryTest++,state.pubTopic=\"shadow/update\",response},sendBLEmode:function(){return response={state:{reported:{thing_name:t.thingName,notification:{mode:t.ble.mode},updateTime:n.toISOString()}}},g.functionCounter.sendBLEmode++,state.pubTopic=\"shadow/update\",response},sendBLEcmd:function(){return t.ble.readyForBleCmds={central:\"true\",peripheral:\"false\"}[t.ble.mode],response={state:{reported:{thing_name:t.thingName,notification:{readyForBleCmds:t.ble.readyForBleCmds},updateTime:n.toISOString()}}},g.functionCounter.sendBLEcmd++,state.pubTopic=\"shadow/update\",response},rebootHub:function(){return state.gateway_status=\"booting\",state.BootIterationsLeft=state._$REBOOT_SLEEP,console.log(\"Starting Reboot\"),t.ble.mode=\"peripheral\",state.pubTopic=\"shadow/update\",g.functionCounter.rebootHub++,{}},upgradeReport:function(){let e={cmd:\"report\",data:{version:\"2.09\",networker:\"2.90\",iotCount:1,tree:{hub:\"8ebd67b673eb42a3e23865049cda3df9\",modules:\"a5bc72da682103f1d58b8c3321f1a1e9\",zstack:\"a21663c3a7e1e88726013a33ee223d70\"},mountWanted:!0,mountActive:!0,hubWanted:!0,hubActive:!1,treeMode:\"idle\",md5TreeBusy:!1},clientToken:state.upgrade.clientToken};return g.functionCounter.upgradeReport++,state.pubTopic=\"admin\",e},wifiScan:function(){state.scan={clientToken:\"blah\"};let e={cmd:\"scan\",clientToken:state.scan.clientToken,data:{wifi_ssids:[\"Test\",\"test1\"]}};return g.functionCounter.wifiScan++,state.pubTopic=\"admin\",e},BLEscan:function(){let e={state:{reported:{thing_name:t.thingName,notification:{scanDeviceReport:[chance.pickone(l.LockMACs),chance.integer({min:-100,max:0}),chance.integer({min:0,max:1}),chance.integer({min:0,max:1}),chance.integer({min:0,max:100})]},updateTime:n.toISOString()}}};return g.functionCounter.BLEscan++,state.pubTopic=\"shadow/update\",e}};state.myFunctions=m,glob.set(\"gateway_\"+client()+\"_stats\",g),p={value:state.gateway_status},glob.set(\"gateway_\"+client()+\"_status\",p)}",
      "initString": "{\r\n    glob.set(\"gateway_\" + client()+\"_active\", true)\r\n    \r\n    _meta.__$key = glob.get(\"gateway_\" + client() + \"_key\");\r\n    _meta.__$cert = glob.get(\"gateway_\" + client() + \"_cert\");\r\n\r\n    state.iteration = 1;\r\n    state._$queue = [];\r\n    state.payload_buffer = [];\r\n    state.pubTopic = \"shadow/update\";\r\n    state.locks = 0;\r\n    state.payload_err = false\r\n    \r\n    let TIME_CONSTANT = 60000; // 60000 is for real time \r\n    \r\n    state._$REBOOT_SLEEP = 5\r\n    \r\n    let gateway = glob.get(\"gateway_\" + client());\r\n    let timestamp = new Date();\r\n    let payload = {}\r\n    let executed = false;\r\n    \r\n    console.log(\"Gateway Status : \"+ state.gateway_status);\r\n    console.log(gateway.thingName);\r\n    \r\n    //Added by Akash\r\n    state.thingName = gateway.thingName;\r\n    \r\n    let device_type = [\"lock\"];//, \"thermostat\", \"motion_sensor\"];\r\n    let lock_models = [\"540-25419-20556\",\"297-32780-3840\",\"297-32770-4096\",\"297-32770-5632\",\"297-32772-1536\",\"297-32771-2816\",\"297-32769-2816\",\"297-32770-1536\",\"297-32779-3840\",\"297-64155-48896\",\"297-3-1033\",\"297-2-0\",\"297-1-1033\",\"144-1-1\",\"59-25409-20548\",\"297-4-2048\",\"297-2-2048\",\"297-4-521\",\"297-32827-1288\",\"144-3-568\",\"144-2065-5032\",\"541-259-3\",\"297-32826-1288\"];\r\n  \r\n\r\n    let fwVer = [\"1.2.3.4\", \"1.3.4.6\", \"2.4.6.8\", \"2.5.8.9\", \"4.5.7.8\"];\r\n    let curr_conn_type = [\"wifi\", \"cellular\", \"ethernet\"];\r\n    let board_type = [\"V2\", \"V3\", \"V4\"];\r\n    let model = [\"sim7500a\", \"sim5300a\"];\r\n    let time_zone = [\"Asia/Kolkata\", \"Asia/Japan\", \"Asia/Bangladesh\", \"Asia/Korea\", \"Asia/China\"];\r\n    let ble_mode = [\"central\", \"peripheral\"];\r\n\r\n    \r\n    // if(true){\r\n    if (!gateway.initialized) {\r\n        \r\n        state.gateway_status = \"booting\";\r\n        glob.set(\"gateway_\" + client() + \"_status\", {value: state.gateway_status});\r\n        glob.set(\"gateway_\" + client() + \"_triggerManual\", {value: false});\r\n        let iterationConfig = [{\r\n                fun: \"heartBeat\",\r\n                interval: 5 * TIME_CONSTANT\r\n            },\r\n            {\r\n                fun: \"sendFWver\",\r\n                interval: 10 * TIME_CONSTANT\r\n            },\r\n            {\r\n                fun: \"hubPower\",\r\n                interval: 15 * TIME_CONSTANT\r\n            },\r\n            {\r\n                fun: \"addDevice\",\r\n                interval: 60 * TIME_CONSTANT\r\n            },\r\n            {\r\n                fun: \"removeDevice\",\r\n                interval: 90 * TIME_CONSTANT\r\n            },\r\n            {\r\n                fun: \"sendConnectionType\",\r\n                interval: 20 * TIME_CONSTANT\r\n            },\r\n            {\r\n                fun: \"sendBoardType\",\r\n                interval: 5 * TIME_CONSTANT\r\n            },\r\n            {\r\n                fun: \"sendICCID\",\r\n                interval: 5 * TIME_CONSTANT\r\n            },\r\n            {\r\n                fun: \"factoryTest\",\r\n                interval: 25 * TIME_CONSTANT\r\n            },\r\n            {\r\n                fun: \"sendBLEmode\",\r\n                interval: 10 * TIME_CONSTANT\r\n            },\r\n            {\r\n                fun: \"sendBLEcmd\",\r\n                interval: 10 * TIME_CONSTANT\r\n            },\r\n            {\r\n                fun: \"rebootHub\",\r\n                interval: 1440 * TIME_CONSTANT\r\n            },\r\n            {\r\n                fun: \"BLEscan\",\r\n                interval: 5 * TIME_CONSTANT\r\n            },\r\n        ]\r\n        glob.set(\"gateway_\" + client()+\"_iterationConfig\", iterationConfig)\r\n\r\n        gateway.power = {\r\n            \"status\": \"plugged\",\r\n            \"level\": chance.integer({\r\n                min: 0,\r\n                max: 100\r\n            })\r\n        }\r\n        \r\n        gateway.devices = []\r\n        \r\n\r\n        gateway.firmware = {\r\n            fwVer: chance.pickone(fwVer)\r\n        }\r\n\r\n        gateway.connection = {\r\n            curr_conn_type: chance.pickone(curr_conn_type)\r\n        }\r\n\r\n        gateway.board = {\r\n            board_type: chance.pickone(board_type),\r\n            model: chance.pickone(model)\r\n        }\r\n\r\n        gateway.sim = {\r\n            imei: chance.string({\r\n                length: 15,\r\n                numeric: true\r\n            }),\r\n            iccid: chance.string({\r\n                length: 19,\r\n                numeric: true\r\n            })\r\n        }\r\n\r\n        gateway.factory = {\r\n            rently_batch_code_duration: chance.integer({\r\n                min: 1,\r\n                max: 4\r\n            }) * 30,\r\n            time_zone: chance.pickone(time_zone),\r\n            agingTest: chance.bool()\r\n        }\r\n\r\n        gateway.rebooting = {\r\n            status: false\r\n        }\r\n        \r\n        gateway.ble = {\r\n            mode: \"central\"\r\n        }\r\n\r\n\r\n        gateway.initialized = true;\r\n    }\r\n    let iterationConfig = glob.get(\"gateway_\" + client() + \"_iterationConfig\");\r\n    let s = glob.get(\"gateway_\" + client() + \"_status\");\r\n    state.gateway_status = s.value;\r\n    \r\n    state.status = state.gateway_status;\r\n    \r\n    let shared = glob.get('gateway_shared');\r\n    if(!shared){\r\n        shared = {\r\n            LockMACs: [\r\n              \"D5:0B:94:3B:D6:6B\",\r\n              \"DA:DF:DB:9F:62:EC\",\r\n              \"E2:99:7F:CB:FF:CB\",\r\n              \"D0:0D:F4:29:DF:48\",\r\n              \"DB:42:93:D9:0B:A6\",\r\n              \"CC:9F:CB:F9:71:2A\",\r\n              \"CC:FD:C5:D8:CF:8D\",\r\n              \"E2:48:B0:60:CD:DA\",\r\n              \"C5:16:4C:60:D5:21\",\r\n              \"FD:42:C6:0A:8D:FB\"\r\n            ]\r\n        }\r\n    }\r\n\r\n    // state.gateway_status = \"preview\";\r\n    // state.gateway_status = \"booting\";\r\n    // glob.set(\"gateway_\" + client() + \"_status\", state.gateway_status);\r\n\r\n    state.BootIterationsLeft = state._$REBOOT_SLEEP;\r\n\r\n    let stats = {\r\n        functionCounter: {\r\n            heartBeat: 0,\r\n            sendFWver: 0,\r\n            hubPower: 0,\r\n            addDevice: 0,\r\n            removeDevice: 0,\r\n            sendConnectionType: 0,\r\n            sendBoardType: 0,\r\n            sendICCID: 0,\r\n            factoryTest: 0,\r\n            sendBLEmode: 0,\r\n            sendBLEcmd: 0,\r\n            rebootHub: 0,\r\n            upgradeReport: 0,\r\n            wifiScan: 0,\r\n            BLEscan: 0\r\n        },\r\n        errors: [],\r\n    }\r\n    glob.set(\"gateway_\" + client()+\"_stats\", stats)\r\n\r\n    glob.set(\"gateway_\" + client(), gateway);\r\n    \r\n    state._$nextExecution = {}\r\n    iterationConfig.forEach(function (obj) {\r\n        state._$nextExecution[obj.fun] = 0;\r\n    });\r\n    \r\n    let hubFunctions = {};\r\n    \r\n    hubFunctions.heartBeat = function() {\r\n\r\n\r\n        response = {\r\n            \"state\": {\r\n                \"reported\": {\r\n                    \"thing_name\": gateway.thingName,\r\n                    \"status\": {\r\n                        \"heartBeat\": timestamp.toISOString()\r\n                    }\r\n                }\r\n            }\r\n        }\r\n\r\n        stats.functionCounter.heartBeat++;\r\n\r\n        state.pubTopic = \"shadow/update\"\r\n        return response;\r\n    }\r\n\r\n    hubFunctions.sendFWver = function() {\r\n\r\n        response = {\r\n            \"state\": {\r\n                \"reported\": {\r\n                    \"thing_name\": gateway.thingName,\r\n                    \"status\":  gateway.firmware,\r\n                    \"updateTime\": timestamp.toISOString()\r\n                }\r\n            }\r\n        }\r\n\r\n        stats.functionCounter.sendFWver++;\r\n\r\n        state.pubTopic = \"shadow/update\"\r\n        return response;\r\n    }\r\n\r\n    hubFunctions.hubPower = function() {\r\n\r\n        let powerArr = [];\r\n\r\n        if (gateway.power.status === 'unplugged') {\r\n            powerArr.push('0x01');\r\n            powerArr.push(gateway.power.level);\r\n        } else {\r\n            powerArr.push('0xc1');\r\n            powerArr.push(100);\r\n        }\r\n\r\n        response = {\r\n            \"state\": {\r\n                \"reported\": {\r\n                    \"thing_name\": gateway.thingName,\r\n                    \"notification\": {\r\n                        \"powerNotification\": powerArr\r\n                    },\r\n                    \"updateTime\": timestamp.toISOString()\r\n                }\r\n            }\r\n        }\r\n\r\n        stats.functionCounter.hubPower++;\r\n\r\n        state.pubTopic = \"shadow/update\"\r\n        return response;\r\n    }\r\n\r\n    hubFunctions.addDevice = function() {\r\n\r\n        // randomly pick a device type\r\n        // nodeId ranges from 2 to 232. Hence array length +2\r\n        // logic to detemine model yet to be added. \r\n        state.devices = gateway.devices\r\n        \r\n\r\n        let deviceType = chance.pickone(device_type);\r\n        let nodeId = gateway.devices.length + 2;\r\n        \r\n        let model = \"\";\r\n\r\n        if (deviceType === \"lock\") {\r\n            model = chance.pickone(lock_models);\r\n            gateway.registerLock = {\r\n                nodeId\r\n            };\r\n        }\r\n        \r\n        gateway.devices.push({\r\n            nodeId: nodeId,\r\n            deviceType: deviceType,\r\n            model: model\r\n        });\r\n\r\n        \r\n\r\n        response = {\r\n            \"state\": {\r\n                \"reported\": {\r\n                    \"thing_name\": gateway.thingName,\r\n                    \"notification\": {\r\n                        \"add_device\": {\r\n                            [nodeId]: [\r\n                                deviceType,\r\n                                model\r\n                            ]\r\n                        }\r\n                    }\r\n                }\r\n            }\r\n        }\r\n\r\n        stats.functionCounter.addDevice++;\r\n\r\n        state.pubTopic = \"shadow/update\"\r\n        return response;\r\n    }\r\n\r\n    hubFunctions.removeDevice = function() {\r\n\r\n        if (!gateway.devices) {\r\n            console.log(\"ERR: No devices to delete\");\r\n            return false\r\n        }\r\n\r\n        let device = chance.pickone(gateway.devices);\r\n        gateway.RemoveDevice = {\r\n\r\n        }\r\n        // gateway.devices.splice(gateway.devices.indexOf(device), 1);\r\n\r\n\r\n        let nodeId = \"\" + device.nodeId;\r\n\r\n        response = {\r\n            \"state\": {\r\n                \"reported\": {\r\n                    \"thing_name\": gateway.thingName,\r\n                    \"notification\": {\r\n                        \"remove_device\": {\r\n                            [nodeId]: \"delete\"\r\n                        }\r\n                    }\r\n                }\r\n            }\r\n\r\n        }\r\n\r\n        stats.functionCounter.removeDevice++;\r\n\r\n        state.pubTopic = \"shadow/update\"\r\n        return response;\r\n    }\r\n\r\n    hubFunctions.sendConnectionType = function() {\r\n\r\n\r\n\r\n        if (gateway.connection.curr_conn_type === \"wifi\") {\r\n            gateway.connection.wifi_ssid = \"WIFI-\" + chance.integer({\r\n                min: 1,\r\n                max: 50\r\n            });\r\n            gateway.connection.wifi_ss = chance.integer({\r\n                min: 0,\r\n                max: 100\r\n            });\r\n        } else if (gateway.connection.curr_conn_type === \"cellular\") {\r\n            gateway.connection.csq = \"\" + chance.floating({\r\n                min: 1.99,\r\n                max: 32.99,\r\n                fixed: 2\r\n            });\r\n        }\r\n\r\n        response = {\r\n            \"state\": {\r\n                \"reported\": {\r\n                    \"thing_name\": gateway.thingName,\r\n                    \"notification\": gateway.connection,\r\n                    \"updateTime\": timestamp.toISOString()\r\n                },\r\n            }\r\n        }\r\n\r\n        stats.functionCounter.sendConnectionType++;\r\n\r\n        state.pubTopic = \"shadow/update\"\r\n        return response;\r\n    }\r\n\r\n    hubFunctions.sendBoardType = function() {\r\n\r\n        response = {\r\n            \"state\": {\r\n                \"reported\": {\r\n                    \"thing_name\": gateway.thingName,\r\n                    \"status\": gateway.board\r\n                }\r\n            }\r\n        }\r\n\r\n        stats.functionCounter.sendBoardType++;\r\n\r\n        state.pubTopic = \"shadow/update\"\r\n        return response;\r\n    }\r\n\r\n    hubFunctions.sendICCID = function() {\r\n\r\n        response = {\r\n            \"state\": {\r\n                \"reported\": {\r\n                    \"thing_name\": gateway.thingName,\r\n                    \"status\": gateway.sim\r\n                }\r\n            }\r\n        }\r\n\r\n        stats.functionCounter.sendICCID++;\r\n\r\n        state.pubTopic = \"shadow/update\"\r\n        return response;\r\n    }\r\n\r\n    hubFunctions.factoryTest = function() {\r\n\r\n        response = {\r\n            \"state\": {\r\n                \"reported\": {\r\n                    \"thing_name\": gateway.thingName,\r\n                    \"settings\": gateway.factory,\r\n                }\r\n            }\r\n        }\r\n\r\n        stats.functionCounter.factoryTest++;\r\n\r\n        state.pubTopic = \"shadow/update\"\r\n        return response;\r\n    }\r\n\r\n    hubFunctions.sendBLEmode = function() {\r\n\r\n\r\n        response = {\r\n            \"state\": {\r\n                \"reported\": {\r\n                    \"thing_name\": gateway.thingName,\r\n                    \"notification\": {\r\n                        mode: gateway.ble.mode\r\n                    },\r\n                    \"updateTime\": timestamp.toISOString()\r\n                }\r\n            }\r\n        }\r\n\r\n        stats.functionCounter.sendBLEmode++;\r\n\r\n        state.pubTopic = \"shadow/update\"\r\n        return response;\r\n    }\r\n\r\n    hubFunctions.sendBLEcmd = function() {\r\n\r\n        //if BLE mode is 'central', readyForBleCmds is true\r\n        //if BLE mode is 'peripheral', readyForBleCmds is false\r\n        gateway.ble.readyForBleCmds = ({\r\n            \"central\": \"true\",\r\n            \"peripheral\": \"false\"\r\n        })[gateway.ble.mode];\r\n\r\n        response = {\r\n            \"state\": {\r\n                \"reported\": {\r\n                    \"thing_name\": gateway.thingName,\r\n                    \"notification\": {\r\n                        readyForBleCmds: gateway.ble.readyForBleCmds\r\n                    },\r\n                    \"updateTime\": timestamp.toISOString()\r\n                }\r\n            }\r\n        }\r\n\r\n        stats.functionCounter.sendBLEcmd++;\r\n\r\n        state.pubTopic = \"shadow/update\"\r\n        return response;\r\n    }\r\n\r\n    hubFunctions.rebootHub = function() {\r\n\r\n        state.gateway_status = \"booting\";\r\n        state.BootIterationsLeft = state._$REBOOT_SLEEP;\r\n        console.log('Starting Reboot');\r\n\r\n        gateway.ble.mode = \"peripheral\";\r\n\r\n        state.pubTopic = \"shadow/update\"\r\n\r\n        stats.functionCounter.rebootHub++;\r\n        // s = {\r\n        //     value: state.gateway_status\r\n        // }\r\n        // glob.set(\"gateway_\" + client() + \"_status\", s);\r\n        return {}\r\n\r\n    }\r\n\r\n    hubFunctions.upgradeReport = function() {\r\n        // state.upgrade = {\r\n        //     clientToken: \"blah\"\r\n        // }\r\n        // TODO: model increments of version also\r\n        let res = {\r\n            cmd: \"report\",\r\n            data: {\r\n                version: \"2.09\",\r\n                networker: \"2.90\",\r\n                iotCount: 1,\r\n                tree: {\r\n                    hub: \"8ebd67b673eb42a3e23865049cda3df9\",\r\n                    modules: \"a5bc72da682103f1d58b8c3321f1a1e9\",\r\n                    zstack: \"a21663c3a7e1e88726013a33ee223d70\"\r\n                },\r\n                mountWanted: true,\r\n                mountActive: true,\r\n                hubWanted: true,\r\n                hubActive: false,\r\n                treeMode: \"idle\",\r\n                md5TreeBusy: false\r\n            },\r\n            clientToken: state.upgrade.clientToken\r\n        }\r\n\r\n        stats.functionCounter.upgradeReport++;\r\n\r\n        state.pubTopic = \"admin\"\r\n        return res\r\n    }\r\n\r\n    hubFunctions.wifiScan = function() {\r\n        \r\n        state.scan = {\r\n            clientToken: \"blah\"\r\n        }\r\n       \r\n        let res = {\r\n            cmd: \"scan\",\r\n            clientToken: state.scan.clientToken,\r\n            data: {\r\n                wifi_ssids: [\r\n                    \"Test\",\r\n                    \"test1\"\r\n                ]\r\n            }\r\n        }\r\n\r\n        stats.functionCounter.wifiScan++;\r\n\r\n        state.pubTopic = \"admin\"\r\n        return res\r\n    }\r\n\r\n    hubFunctions.BLEscan = function() {\r\n\r\n\r\n        let res = {\r\n            state: {\r\n                reported: {\r\n                    thing_name: gateway.thingName,\r\n                    notification: {\r\n                        scanDeviceReport: [\r\n                            chance.pickone(shared.LockMACs),\r\n                            chance.integer({\r\n                                min: -100,\r\n                                max: 0\r\n                            }),\r\n                            chance.integer({\r\n                                min: 0,\r\n                                max: 1\r\n                            }),\r\n                            chance.integer({\r\n                                min: 0,\r\n                                max: 1\r\n                            }),\r\n                            chance.integer({\r\n                                min: 0,\r\n                                max: 100\r\n                            })\r\n                        ]\r\n                    },\r\n                    updateTime: timestamp.toISOString()\r\n                }\r\n            }\r\n        }\r\n\r\n        stats.functionCounter.BLEscan++;\r\n\r\n        state.pubTopic = \"shadow/update\"\r\n        return res\r\n    }\r\n    \r\n    // hubFunction.BLEfirmware = function(){\r\n        \r\n    //     // let resp = {\r\n    //     //   state: {\r\n    //     //     reported: {\r\n    //     //       thing_name: \"37180\",\r\n    //     //       notification: {\r\n    //     //         lockFWVer: [\r\n    //     //           chance.pickone(shared.LockMACs),\r\n    //     //           chance.floating({ min: 2.5, max: 2.13, fixed: 2 })\r\n    //     //         ]\r\n    //     //       },\r\n    //     //       updateTime: \"2021-08-23T11:20:32.234Z\"\r\n    //     //     }\r\n    //     //   }\r\n    //     // }\r\n    //     // return \"resp\"\r\n    // }\r\n    \r\n    state.myFunctions = hubFunctions;\r\n    glob.set(\"gateway_\" + client() + \"_stats\", stats);\r\n    \r\n    s = {\r\n        value: state.gateway_status\r\n    }\r\n    glob.set(\"gateway_\" + client() + \"_status\", s);\r\n\r\n}",
      "finish": "{glob.set(\"gateway_\"+client()+\"_active\",!1)}",
      "finishString": "{\n    glob.set(\"gateway_\" + client()+\"_active\", false); \n}\n",
      "sub": "{console.log(\"\\n Rx TOPIC: \",topic);let t=JSON.parse(response),i=glob.get(\"gateway_\"+client());if(topic===\"$aws/things/\"+i.thingName+\"/shadow/update\")console.log(\"Received Shadow Response\");else if(topic===\"$aws/things/\"+i.thingName+\"/hub\"){if(t&&\"upgrade\"===t.cmd){state.pubTopic=\"admin\",state.upgrade={clientToken:t.clientToken};let e={fun:\"upgradeReport\"};state._$queue.push(e)}else if(t&&\"scan\"===t.cmd){state.pubTopic=\"admin\",state.scan={clientToken:t.clientToken};let e={fun:\"wifiScan\"};state._$queue.push(e)}else if(t&&\"tree\"===t.cmd){if(rest.get({url:\"https://rentlypt-hub-trees.s3.amazonaws.com/test-da964c401418df9328d374e9dfc6ecc2.tgz\"})){state.tree={clientToken:t.clientToken,ver:t.tree},i=glob.get(\"gateway_\"+client()),i.firmware={fwVer:t.tree},glob.set(\"gateway_\"+client(),i);let e={fun:\"sendFWver\"};state._$queue.push(e)}else state.payload_err={error:!0,iteration:state.iteration-1,msg:\"Failed to get firmware\"}}}else if(topic===\"$aws/things/\"+i.thingName+\"/shadow/update/delta\")if(t.state){console.log(\"DEVICES : \",JSON.stringify(t.state.settings.devices)),i=glob.get(\"gateway_\"+client());let e=t.state.settings.devices,s=\"\";if(i.deviceGUIDs){let t=i.deviceGUIDs;if(e.length>t.length){let n=e.filter((e=>-1===t.indexOf(e)));if(n.length&&(s=n[0],i.deviceGUIDs.push(s),i.registerLock)){i.devices.find(((e,t)=>{e.nodeId===i.registerLock.nodeId&&(i.devices[t].thing_name=s)}));let e=\"L\"+ ++state.locks+\"G\"+client(),t={thing_name:s};glob.set(e,t),i.registerLock=!1}}else if(e.length<t.length){let s=t.filter((t=>-1===e.indexOf(t)));i.devices.find(((e,t)=>{e.thing_name===s&&i.devices.splice(i.devices.indexOf(e),1)}))}}else if(i.deviceGUIDs=e,s=e[0],i.registerLock&&s.length){i.devices.find(((e,t)=>{e.nodeId===i.registerLock.nodeId&&(i.devices[t].thing_name=s)}));let e=\"L\"+ ++state.locks+\"G\"+client(),t={thing_name:s};glob.set(e,t),i.registerLock=!1}glob.set(\"gateway_\"+client(),i)}else console.log(\"Received update/delta without state !!\"),console.log(t)}",
      "subString": "{\r\n\r\n    console.log(\"\\n Rx TOPIC: \", topic)\r\n    // console.log(\"\\n RESPONSE: \", response)\r\n    //   //console.log(\"\\n <<< END OF RESPONSE >>> \\n \")\r\n\r\n    let res = JSON.parse(response);\r\n    let gateway = glob.get(\"gateway_\" + client());\r\n\r\n    if (topic === \"$aws/things/\" + gateway.thingName + \"/shadow/update\") {\r\n        ////console.log(\"Received\", topic, response);\r\n        console.log(\"Received Shadow Response\");\r\n\r\n\r\n    } else if (topic === \"$aws/things/\" + gateway.thingName + \"/hub\") {\r\n        // //console.log(response);\r\n        if (res && res.cmd === \"upgrade\") {\r\n            // //console.log(\"Received UPGRADE command\");\r\n            state.pubTopic = \"admin\";\r\n            state.upgrade = {\r\n                clientToken: res.clientToken\r\n            }\r\n            let obj = {\r\n                fun: \"upgradeReport\"\r\n            }\r\n            state._$queue.push(obj);\r\n        } else if (res && res.cmd === \"scan\") {\r\n            //TODO: refactor to account for topic change in queue\r\n            //console.log(\"Received SCAN command\");\r\n            state.pubTopic = \"admin\";\r\n            state.scan = {\r\n                clientToken: res.clientToken\r\n            }\r\n            let obj = {\r\n                fun: \"wifiScan\"\r\n            }\r\n            state._$queue.push(obj);\r\n\r\n        } else if (res && res.cmd === \"tree\") {\r\n            //console.log(\"Received TREE command\");\r\n\r\n            let bin = rest.get({\r\n                url: 'https://rentlypt-hub-trees.s3.amazonaws.com/test-da964c401418df9328d374e9dfc6ecc2.tgz'\r\n            });\r\n            if (!bin) {\r\n                state.payload_err = {\r\n                    error: true,\r\n                    iteration: state.iteration - 1,\r\n                    msg: \"Failed to get firmware\"\r\n                };\r\n            } else {\r\n                state.tree = {\r\n                    clientToken: res.clientToken,\r\n                    ver: res.tree\r\n                }\r\n                gateway = glob.get(\"gateway_\" + client());\r\n                gateway.firmware = {\r\n                    fwVer: res.tree\r\n                }\r\n                \r\n                // TODO: \r\n                // GET req to S3 bucket\r\n                // check if checksum matches\r\n                glob.set(\"gateway_\" + client(), gateway);\r\n\r\n                let obj = {\r\n                    fun: \"sendFWver\"\r\n                }\r\n                state._$queue.push(obj);\r\n            }\r\n\r\n\r\n        }\r\n    } else if (topic === \"$aws/things/\" + gateway.thingName + \"/shadow/update/delta\") {\r\n        if(!! res.state){\r\n            console.log(\"DEVICES : \", JSON.stringify(res.state.settings.devices))\r\n            gateway = glob.get(\"gateway_\" + client());\r\n\r\n        let newDevices = res.state.settings.devices;\r\n        let newDevice = \"\";\r\n\r\n        if (!gateway.deviceGUIDs) {\r\n            //console.log(\"No Local Copy of Devices\");\r\n\r\n            gateway.deviceGUIDs = newDevices;\r\n            newDevice = newDevices[0];\r\n\r\n            if (gateway.registerLock && newDevice.length) {\r\n\r\n                gateway.devices.find((o, i) => {\r\n                    if (o.nodeId === gateway.registerLock.nodeId) {\r\n                        gateway.devices[i].thing_name = newDevice;\r\n                    }\r\n                });\r\n\r\n                let lockIndex = \"L\" + (++state.locks) + \"G\" + client();\r\n                let data = {\r\n                    thing_name: newDevice\r\n                }\r\n                glob.set(lockIndex, data);\r\n                //console.log(\"REGISTERED LOCK WITH INDEX\" + lockIndex);\r\n\r\n                gateway.registerLock = false\r\n            }\r\n        } else {\r\n\r\n            let oldDevices = gateway.deviceGUIDs;\r\n\r\n            if (newDevices.length > oldDevices.length) {\r\n                let n = newDevices.filter((x) => {\r\n                    return oldDevices.indexOf(x) === -1\r\n                })\r\n\r\n                if (n.length) {\r\n\r\n                    newDevice = n[0]\r\n                    gateway.deviceGUIDs.push(newDevice);\r\n\r\n                    //console.log(\"NEW DEVICE REGISTERED : \" + newDevice)\r\n                    if (gateway.registerLock) {\r\n\r\n                        gateway.devices.find((o, i) => {\r\n                            if (o.nodeId === gateway.registerLock.nodeId) {\r\n                                gateway.devices[i].thing_name = newDevice;\r\n                            }\r\n                        });\r\n\r\n                        let lockIndex = \"L\" + (++state.locks) + \"G\" + client();\r\n                        let data = {\r\n                            thing_name: newDevice\r\n                        }\r\n                        glob.set(lockIndex, data);\r\n                        //console.log(\"REGISTERED LOCK WITH INDEX\" + lockIndex);\r\n\r\n                        gateway.registerLock = false\r\n                    }\r\n                } else {\r\n                    //console.log(\"No new device received back\");\r\n\r\n                }\r\n            } else if (newDevices.length < oldDevices.length) {\r\n                let r = oldDevices.filter((x) => {\r\n                    return newDevices.indexOf(x) === -1\r\n                })\r\n                gateway.devices.find((o, i) => {\r\n                    if (o.thing_name === r) {\r\n                        gateway.devices.splice(gateway.devices.indexOf(o), 1);\r\n                    }\r\n                });\r\n\r\n            } else {\r\n                //console.log(\"No new device received back\");\r\n\r\n            }\r\n        }\r\n\r\n        glob.set(\"gateway_\" + client(), gateway);\r\n        }\r\n        else{\r\n            console.log(\"Received update/delta without state !!\");\r\n            console.log(res);\r\n        }\r\n\r\n\r\n    }\r\n\r\n}",
      "subscribe": "$aws/things/{{state.thingName}}/#"
    },
    "topic": "$aws/things/{{state.thingName}}/{{state.pubTopic}}",
    "protocol": "mqtt",
    "transport": "mqtts",
    "host": "a3cs3g754w2d11.iot.us-east-1.amazonaws.com",
    "endpoint": "mqtts://a3cs3g754w2d11.iot.us-east-1.amazonaws.com",
    "msgOptions": {
      "qos": null,
      "retain": false
    }
  },
  "type": "network"
}